…
### ListSets


```r
oai::list_sets(url = "http://kops.uni-konstanz.de/oai/dini")
```

```
## # A tibble: 173 x 2
##    setSpec         setName                        
##    <chr>           <chr>                          
##  1 ddc:920         Biography, genealogy, insignia 
##  2 ddc:800         Literature & rhetoric          
##  3 doc-type:report Report                         
##  4 ddc:090         Manuscripts & rare books       
##  5 ddc:370         Education                      
##  6 ddc:491.8       Slavic languages               
##  7 ddc:130         Paranormal phenomena           
##  8 ddc:490         Other languages                
##  9 ddc:650         Management & auxiliary services
## 10 ddc:010         Bibliography                   
## # ... with 163 more rows
```
…
`oai` wandelt das standardmäßige Format `oai_dc` in ein `data.frame` um, ein tabellenartiges Datenobjekt. R kennt darüber hinaus weitere Datenobjekte. Ebenso können verschiedene Datenformate wie csv, xlsx, json, xml, yaml o.ä. in R importiert bzw. exportiert werden. 

In unserem Falle bleiben wir beim `oai_dc` Format, dass durch das `oai` Paket in ein `data.frame` transformiert wurde.

### ListIdentifiers


```r
oai::list_identifiers(url = "http://kops.uni-konstanz.de/oai/dini",
                      from = '2018-05-01T', until = '2018-06-01T')
```

```
## # A tibble: 175 x 11
##    identifier   datestamp  setSpec setSpec.1 setSpec.2 setSpec.3 setSpec.4
##    <chr>        <chr>      <chr>   <chr>     <chr>     <chr>     <chr>    
##  1 oai:kops.un… 2018-05-3… com_12… col_1234… doc-type… doc-type… open_acc…
##  2 oai:kops.un… 2018-05-1… com_12… col_1234… doc-type… doc-type… open_acc…
##  3 oai:kops.un… 2018-05-0… com_12… col_1234… doc-type… doc-type… open_acc…
##  4 oai:kops.un… 2018-05-0… com_12… com_1234… com_1234… col_1234… col_1234…
##  5 oai:kops.un… 2018-05-1… com_12… col_1234… doc-type… doc-type… open_acc…
##  6 oai:kops.un… 2018-05-1… com_12… col_1234… doc-type… ddc:004   doc-type…
##  7 oai:kops.un… 2018-05-0… com_12… com_1234… col_1234… col_1234… doc-type…
##  8 oai:kops.un… 2018-05-0… com_12… col_1234… ddc:530   doc-type… open_acc…
##  9 oai:kops.un… 2018-05-2… com_12… col_1234… ddc:004   doc-type… open_acc…
## 10 oai:kops.un… 2018-05-0… com_12… col_1234… doc-type… doc-type… open_acc…
## # ... with 165 more rows, and 4 more variables: setSpec.5 <chr>,
## #   setSpec.6 <chr>, setSpec.7 <chr>, setSpec.8 <chr>
```

### ListRecords


```r
oai::list_records(url = "http://kops.uni-konstanz.de/oai/dini",
                      from = '2018-05-01T', until = '2018-06-01T',
                  set = "doc-type:article")
```

```
## # A tibble: 109 x 136
##    identifier   datestamp  setSpec setSpec.1 setSpec.2 setSpec.3 setSpec.4
##    <chr>        <chr>      <chr>   <chr>     <chr>     <chr>     <chr>    
##  1 oai:kops.un… 2018-05-3… com_12… col_1234… doc-type… doc-type… open_acc…
##  2 oai:kops.un… 2018-05-1… com_12… col_1234… doc-type… doc-type… open_acc…
##  3 oai:kops.un… 2018-05-0… com_12… col_1234… doc-type… doc-type… open_acc…
##  4 oai:kops.un… 2018-05-1… com_12… col_1234… doc-type… doc-type… open_acc…
##  5 oai:kops.un… 2018-05-1… com_12… col_1234… doc-type… ddc:004   doc-type…
##  6 oai:kops.un… 2018-05-0… com_12… com_1234… col_1234… col_1234… doc-type…
##  7 oai:kops.un… 2018-05-0… com_12… col_1234… doc-type… doc-type… open_acc…
##  8 oai:kops.un… 2018-05-0… com_12… col_1234… doc-type… doc-type… open_acc…
##  9 oai:kops.un… 2018-05-0… com_12… col_1234… doc-type… doc-type… open_acc…
## 10 oai:kops.un… 2018-05-1… com_12… com_1234… col_1234… col_1234… doc-type…
## # ... with 99 more rows, and 129 more variables: setSpec.5 <chr>,
## #   title <chr>, creator <chr>, creator.1 <chr>, creator.2 <chr>,
## #   creator.3 <chr>, subject <chr>, description <chr>,
## #   description.1 <chr>, date <chr>, type <chr>, type.1 <chr>,
## #   identifier.4 <chr>, source <chr>, identifier.1 <chr>,
## #   identifier.2 <chr>, identifier.3 <chr>, language <chr>, rights <chr>,
## #   format <chr>, format.1 <chr>, creator.4 <chr>, creator.5 <chr>,
## #   creator.6 <chr>, creator.7 <chr>, creator.8 <chr>, creator.9 <chr>,
## #   subject.1 <chr>, subject.2 <chr>, subject.3 <chr>, subject.4 <chr>,
…
